{
    "index": {
        "download_fdroid": "Download F-Droid",
        "introduction": "F-Droid is een installeerbare catalogus van vrijesoftwareapps voor het Android-platform. De cliënt maakt het bladeren door apps, installeren en bijhouden van nieuwe updates op uw apparaat eenvoudig.",
        "gpg_signature": "PGP-handtekening",
        "screenshot": "Schermafdruk van de F-Droid-app voor Android",
        "title": "Wat is F-Droid?"
    },
    "navigation": {
        "about": "Over",
        "contribute": "Bijdragen",
        "forum": "Forum",
        "browse": "Verken",
        "documentation": "Documenten",
        "repomaker": "Repomaker",
        "tutorials": "Handleidingen",
        "news": "Nieuws",
        "issues": "Problemen"
    },
    "package": {
        "website": "Website",
        "permissions": "Toestemmingen",
        "donate": "Doneer",
        "liberapay": "Liberapay",
        "technical_info": "Technische info",
        "build_metadata": "Build-metadata",
        "author": "Auteur",
        "new_in_version": "Nieuw in versie [latest_version]",
        "version_info": "<b>Versie [package_version]</b> ([package_version_code]) - Toegevoegd op [package_added_date]",
        "changelog": "Wijzigingslog",
        "issue_tracker": "Probleemopvolging",
        "signed_by_developer": "Het is gebouwd en getekend door de oorspronkelijke ontwikkelaar.",
        "gpg_signature": "PGP-handtekening",
        "signed_by_fdroid": "Het is gebouwd en ondertekend door F-Droid, en is gegarandeerd om hetzelfde te zijn als <a href=\"[source_code_url]\"> deze tarball</a>.",
        "packages": "Pakket",
        "download": "[file_extension] downloaden",
        "license": "Licentie",
        "minimum_android_version": "Deze versie vereist Android [android_version] of nieuwer.",
        "suggest_downloading_via_fdroid": "Hoewel de APK-bestanden hieronder beschikbaar zijn zodat u de keuze heeft, moet u zich ervan bewust zijn dat u bij deze installatie geen updatemeldingen ontvangt en het een minder veilige manier is om te downloaden. Wij raden u aan de F-Droid-cliënt te installeren en gebruiken.",
        "source_code": "Broncode",
        "flattr": "Flattr"
    },
    "sidebars": {
        "latest_packages": {
            "heading": "Nieuwste apps"
        },
        "news": {
            "heading": "Nieuws"
        },
        "search": {
            "noscript": "Vereist JavaScript om ingeschakeld te zijn",
            "search": "Zoek",
            "heading": "Zoeken naar apps"
        },
        "donate": {
            "bank_transfer_name": "Naam",
            "bitcoin_alt": "Doneer via Bitcoin",
            "powered_by_donations": "F-Droid is mogelijk gemaakt door jullie donaties!",
            "via_bank_transfer": "Bankoverschrijving",
            "litecoin_alt": "Doneer via Litecoin",
            "flattr_alt": "Doneer via Flattr",
            "paypal_alt": "Doneer via PayPal",
            "liberapay_alt": "Doneer via Liberapay",
            "heading": "Doneer"
        },
        "last_updated": {
            "heading": "Laatst bijgewerkt"
        }
    }
}
